2016-12-15 21:19:13.007 +01:00 [Information] User profile is available. Using '"C:\Users\Slawek.DESKTOP-LMOH83Q\AppData\Local\ASP.NET\DataProtection-Keys"' as key repository and Windows DPAPI to encrypt keys at rest.
2016-12-15 21:19:13.736 +01:00 [Information] Request starting HTTP/1.1 GET http://localhost:50417/api/values  
2016-12-15 21:19:13.736 +01:00 [Information] Request starting HTTP/1.1 POST http://localhost:50417/connect/token application/x-www-form-urlencoded 281
2016-12-15 21:19:13.737 +01:00 [Information] Request starting HTTP/1.1 DEBUG http://localhost:50417/  0
2016-12-15 21:19:13.736 +01:00 [Information] Request starting HTTP/1.1 POST http://localhost:50417/connect/token application/x-www-form-urlencoded 1026
2016-12-15 21:19:13.940 +01:00 [Information] Request finished in 236.4334ms 200 
2016-12-15 21:19:14.156 +01:00 [Information] The token request validation process was skipped because the client_id parameter was missing or empty.
2016-12-15 21:19:14.156 +01:00 [Information] The token request validation process was skipped because the client_id parameter was missing or empty.
2016-12-15 21:19:14.477 +01:00 [Information] Request finished in 783.2245ms 404 
2016-12-15 21:19:14.700 +01:00 [Error] The token request was rejected because the authorization code or the refresh token was expired.
2016-12-15 21:19:14.902 +01:00 [Information] Request finished in 1198.7083ms 400 application/json;charset=UTF-8
2016-12-15 21:19:14.956 +01:00 [Information] Executing action method "FarmMachine.Api.Controllers.AuthorizationController.Exchange (FarmMachine.Api)" with arguments (["AspNet.Security.OpenIdConnect.Extensions.OpenIdConnectRequest"]) - ModelState is Valid
2016-12-15 21:19:19.351 +01:00 [Information] Executed DbCommand (236ms) [Parameters=[@__normalizedUserName_0='?' (Size = 256)], CommandType='Text', CommandTimeout='30']
SELECT TOP(1) [u].[Id], [u].[AccessFailedCount], [u].[ConcurrencyStamp], [u].[Email], [u].[EmailConfirmed], [u].[LockoutEnabled], [u].[LockoutEnd], [u].[NormalizedEmail], [u].[NormalizedUserName], [u].[PasswordHash], [u].[PhoneNumber], [u].[PhoneNumberConfirmed], [u].[SecurityStamp], [u].[TwoFactorEnabled], [u].[UserName]
FROM [AspNetUsers] AS [u]
WHERE [u].[NormalizedUserName] = @__normalizedUserName_0
2016-12-15 21:19:19.616 +01:00 [Information] Executed DbCommand (6ms) [Parameters=[@__userId_0='?' (Size = 450)], CommandType='Text', CommandTimeout='30']
SELECT [l].[LoginProvider], [l].[ProviderKey], [l].[ProviderDisplayName]
FROM [AspNetUserLogins] AS [l]
WHERE [l].[UserId] = @__userId_0
2016-12-15 21:19:19.736 +01:00 [Information] Executed DbCommand (2ms) [Parameters=[@__userId_0='?' (Size = 450)], CommandType='Text', CommandTimeout='30']
SELECT [role].[Name]
FROM [AspNetUserRoles] AS [userRole]
INNER JOIN [AspNetRoles] AS [role] ON [userRole].[RoleId] = [role].[Id]
WHERE [userRole].[UserId] = @__userId_0
2016-12-15 21:19:19.776 +01:00 [Information] Executed DbCommand (5ms) [Parameters=[@__user_Id_0='?' (Size = 450)], CommandType='Text', CommandTimeout='30']
SELECT [uc].[Id], [uc].[ClaimType], [uc].[ClaimValue], [uc].[UserId]
FROM [AspNetUserClaims] AS [uc]
WHERE [uc].[UserId] = @__user_Id_0
2016-12-15 21:19:19.822 +01:00 [Information] Executing SignInResult with authentication scheme ("ASOS") and the following principal: "System.Security.Claims.ClaimsPrincipal".
2016-12-15 21:19:19.881 +01:00 [Information] No explicit audience was associated with the access token.
2016-12-15 21:19:20.142 +01:00 [Information] Executed DbCommand (8ms) [Parameters=[@p0='?' (Size = 450), @p1='?' (Size = 450), @p2='?' (Size = 450), @p3='?' (Size = 4000)], CommandType='Text', CommandTimeout='30']
SET NOCOUNT ON;
INSERT INTO [OpenIddictTokens] ([Id], [ApplicationId], [AuthorizationId], [Type])
VALUES (@p0, @p1, @p2, @p3);
2016-12-15 21:19:20.204 +01:00 [Information] AuthenticationScheme: "ASOS" signed in.
2016-12-15 21:19:20.255 +01:00 [Information] Executed action "FarmMachine.Api.Controllers.AuthorizationController.Exchange (FarmMachine.Api)" in 5708.7622ms
2016-12-15 21:19:20.320 +01:00 [Information] Request finished in 6591.0003ms 200 application/json;charset=UTF-8
2016-12-15 21:19:28.974 +01:00 [Information] Request starting HTTP/1.1 OPTIONS http://localhost:50417/api/farms  
2016-12-15 21:19:29.003 +01:00 [Information] Request finished in 24.2672ms 204 
2016-12-15 21:19:29.009 +01:00 [Information] Request starting HTTP/1.1 GET http://localhost:50417/api/farms text/plain 
2016-12-15 21:19:29.025 +01:00 [Information] "Bearer" was not authenticated. Failure message: "Authentication failed because the access token was invalid."
2016-12-15 21:19:29.052 +01:00 [Information] Request starting HTTP/1.1 GET http://localhost:50417/.well-known/openid-configuration  
2016-12-15 21:19:29.094 +01:00 [Information] Request finished in 41.3982ms 200 application/json;charset=UTF-8
2016-12-15 21:19:29.166 +01:00 [Information] Request starting HTTP/1.1 GET http://localhost:50417/.well-known/jwks  
2016-12-15 21:19:29.216 +01:00 [Information] Request finished in 50.1411ms 200 application/json;charset=UTF-8
2016-12-15 21:19:29.362 +01:00 [Information] Successfully validated the token.
2016-12-15 21:19:29.371 +01:00 [Information] HttpContext.User merged via AutomaticAuthentication from authenticationScheme: "Bearer".
2016-12-15 21:19:29.398 +01:00 [Information] Authorization was successful for user: "majster590@wp.pl".
2016-12-15 21:19:29.405 +01:00 [Information] Executing action method "FarmMachine.Api.Controllers.FarmsController.Get (FarmMachine.Api)" with arguments (null) - ModelState is Valid
2016-12-15 21:19:29.521 +01:00 [Information] Executed DbCommand (2ms) [Parameters=[@__query_UserId_0='?' (Size = 450)], CommandType='Text', CommandTimeout='30']
SELECT [f].[Id], [f].[Active], [f].[ContactPersonId], [f].[CreationTime], [f].[CreatorUserId], [f].[FarmIdentifier], [f].[ModificationTime], [f].[Name]
FROM [Farms] AS [f]
WHERE [f].[CreatorUserId] = @__query_UserId_0
2016-12-15 21:19:29.563 +01:00 [Information] Executing ObjectResult, writing value "Microsoft.AspNetCore.Mvc.ControllerContext".
2016-12-15 21:19:29.603 +01:00 [Information] Executed action "FarmMachine.Api.Controllers.FarmsController.Get (FarmMachine.Api)" in 228.0522ms
2016-12-15 21:19:29.609 +01:00 [Information] Request finished in 602.3614ms 200 application/json; charset=utf-8
2016-12-15 21:20:21.761 +01:00 [Information] Request starting HTTP/1.1 OPTIONS http://localhost:50417/api/farms  
2016-12-15 21:20:21.774 +01:00 [Information] Request finished in 11.9319ms 204 
2016-12-15 21:20:21.781 +01:00 [Information] Request starting HTTP/1.1 GET http://localhost:50417/api/farms text/plain 
2016-12-15 21:20:21.789 +01:00 [Information] "Bearer" was not authenticated. Failure message: "Authentication failed because the access token was invalid."
2016-12-15 21:20:21.792 +01:00 [Information] Successfully validated the token.
2016-12-15 21:20:21.795 +01:00 [Information] HttpContext.User merged via AutomaticAuthentication from authenticationScheme: "Bearer".
2016-12-15 21:20:21.803 +01:00 [Information] Authorization was successful for user: "majster590@wp.pl".
2016-12-15 21:20:21.808 +01:00 [Information] Executing action method "FarmMachine.Api.Controllers.FarmsController.Get (FarmMachine.Api)" with arguments (null) - ModelState is Valid
2016-12-15 21:20:21.825 +01:00 [Information] Executed DbCommand (0ms) [Parameters=[@__query_UserId_0='?' (Size = 450)], CommandType='Text', CommandTimeout='30']
SELECT [f].[Id], [f].[Active], [f].[ContactPersonId], [f].[CreationTime], [f].[CreatorUserId], [f].[FarmIdentifier], [f].[ModificationTime], [f].[Name]
FROM [Farms] AS [f]
WHERE [f].[CreatorUserId] = @__query_UserId_0
2016-12-15 21:20:21.829 +01:00 [Information] Executing ObjectResult, writing value "Microsoft.AspNetCore.Mvc.ControllerContext".
2016-12-15 21:20:21.839 +01:00 [Information] Executed action "FarmMachine.Api.Controllers.FarmsController.Get (FarmMachine.Api)" in 32.6655ms
2016-12-15 21:20:21.855 +01:00 [Information] Request finished in 64.7391ms 200 application/json; charset=utf-8
2016-12-15 21:36:02.288 +01:00 [Information] Request starting HTTP/1.1 OPTIONS http://localhost:50417/api/farms  
2016-12-15 21:36:02.316 +01:00 [Information] Request finished in 33.5062ms 204 
2016-12-15 21:36:02.372 +01:00 [Information] Request starting HTTP/1.1 GET http://localhost:50417/api/farms text/plain 
2016-12-15 21:36:02.385 +01:00 [Information] "Bearer" was not authenticated. Failure message: "Authentication failed because the access token was invalid."
2016-12-15 21:36:02.390 +01:00 [Information] Successfully validated the token.
2016-12-15 21:36:02.394 +01:00 [Information] HttpContext.User merged via AutomaticAuthentication from authenticationScheme: "Bearer".
2016-12-15 21:36:02.402 +01:00 [Information] Authorization was successful for user: "majster590@wp.pl".
2016-12-15 21:36:02.411 +01:00 [Information] Executing action method "FarmMachine.Api.Controllers.FarmsController.Get (FarmMachine.Api)" with arguments (null) - ModelState is Valid
2016-12-15 21:36:02.490 +01:00 [Information] Executed DbCommand (8ms) [Parameters=[@__query_UserId_0='?' (Size = 450)], CommandType='Text', CommandTimeout='30']
SELECT [f].[Id], [f].[Active], [f].[ContactPersonId], [f].[CreationTime], [f].[CreatorUserId], [f].[FarmIdentifier], [f].[ModificationTime], [f].[Name]
FROM [Farms] AS [f]
WHERE [f].[CreatorUserId] = @__query_UserId_0
2016-12-15 21:36:02.492 +01:00 [Information] Executing ObjectResult, writing value "Microsoft.AspNetCore.Mvc.ControllerContext".
2016-12-15 21:36:02.496 +01:00 [Information] Executed action "FarmMachine.Api.Controllers.FarmsController.Get (FarmMachine.Api)" in 98.6389ms
2016-12-15 21:36:02.500 +01:00 [Information] Request finished in 180.2785ms 200 application/json; charset=utf-8
