2016-12-10 12:00:28.110 +01:00 [Information] User profile is available. Using '"C:\Users\Slawek.DESKTOP-LMOH83Q\AppData\Local\ASP.NET\DataProtection-Keys"' as key repository and Windows DPAPI to encrypt keys at rest.
2016-12-10 12:00:28.898 +01:00 [Information] Request starting HTTP/1.1 GET http://localhost:50417/api/values  
2016-12-10 12:00:28.898 +01:00 [Information] Request starting HTTP/1.1 DEBUG http://localhost:50417/  0
2016-12-10 12:00:29.133 +01:00 [Information] Request finished in 243.8356ms 200 
2016-12-10 12:00:29.649 +01:00 [Information] Request finished in 807.5461ms 404 
2016-12-10 12:00:44.817 +01:00 [Information] Request starting HTTP/1.1 POST http://localhost:50417/connect/token application/x-www-form-urlencoded 919
2016-12-10 12:00:44.993 +01:00 [Information] The token request validation process was skipped because the client_id parameter was missing or empty.
2016-12-10 12:00:45.450 +01:00 [Error] The token request was rejected because the authorization code or the refresh token was expired.
2016-12-10 12:00:45.637 +01:00 [Information] Request finished in 824.4312ms 400 application/json;charset=UTF-8
2016-12-10 12:00:55.773 +01:00 [Information] Request starting HTTP/1.1 POST http://localhost:50417/connect/token application/x-www-form-urlencoded 276
2016-12-10 12:00:55.789 +01:00 [Information] The token request validation process was skipped because the client_id parameter was missing or empty.
2016-12-10 12:00:56.234 +01:00 [Information] Executing action method "FarmMachine.Api.Controllers.AuthorizationController.Exchange (FarmMachine.Api)" with arguments (["AspNet.Security.OpenIdConnect.Extensions.OpenIdConnectRequest"]) - ModelState is Valid
2016-12-10 12:01:01.687 +01:00 [Information] Executed DbCommand (263ms) [Parameters=[@__normalizedUserName_0='?' (Size = 256)], CommandType='Text', CommandTimeout='30']
SELECT TOP(1) [u].[Id], [u].[AccessFailedCount], [u].[ConcurrencyStamp], [u].[Email], [u].[EmailConfirmed], [u].[LockoutEnabled], [u].[LockoutEnd], [u].[NormalizedEmail], [u].[NormalizedUserName], [u].[PasswordHash], [u].[PhoneNumber], [u].[PhoneNumberConfirmed], [u].[SecurityStamp], [u].[TwoFactorEnabled], [u].[UserName]
FROM [AspNetUsers] AS [u]
WHERE [u].[NormalizedUserName] = @__normalizedUserName_0
2016-12-10 12:01:02.020 +01:00 [Information] Executed DbCommand (7ms) [Parameters=[@__userId_0='?' (Size = 450)], CommandType='Text', CommandTimeout='30']
SELECT [l].[LoginProvider], [l].[ProviderKey], [l].[ProviderDisplayName]
FROM [AspNetUserLogins] AS [l]
WHERE [l].[UserId] = @__userId_0
2016-12-10 12:01:02.188 +01:00 [Information] Executed DbCommand (4ms) [Parameters=[@__userId_0='?' (Size = 450)], CommandType='Text', CommandTimeout='30']
SELECT [role].[Name]
FROM [AspNetUserRoles] AS [userRole]
INNER JOIN [AspNetRoles] AS [role] ON [userRole].[RoleId] = [role].[Id]
WHERE [userRole].[UserId] = @__userId_0
2016-12-10 12:01:02.220 +01:00 [Information] Executed DbCommand (2ms) [Parameters=[@__user_Id_0='?' (Size = 450)], CommandType='Text', CommandTimeout='30']
SELECT [uc].[Id], [uc].[ClaimType], [uc].[ClaimValue], [uc].[UserId]
FROM [AspNetUserClaims] AS [uc]
WHERE [uc].[UserId] = @__user_Id_0
2016-12-10 12:01:02.272 +01:00 [Information] Executing SignInResult with authentication scheme ("ASOS") and the following principal: "System.Security.Claims.ClaimsPrincipal".
2016-12-10 12:01:02.352 +01:00 [Information] No explicit audience was associated with the access token.
2016-12-10 12:01:02.807 +01:00 [Information] Executed DbCommand (11ms) [Parameters=[@p0='?' (Size = 450), @p1='?' (Size = 450), @p2='?' (Size = 450), @p3='?' (Size = 4000)], CommandType='Text', CommandTimeout='30']
SET NOCOUNT ON;
INSERT INTO [OpenIddictTokens] ([Id], [ApplicationId], [AuthorizationId], [Type])
VALUES (@p0, @p1, @p2, @p3);
2016-12-10 12:01:02.879 +01:00 [Information] AuthenticationScheme: "ASOS" signed in.
2016-12-10 12:01:02.907 +01:00 [Information] Executed action "FarmMachine.Api.Controllers.AuthorizationController.Exchange (FarmMachine.Api)" in 6974.8453ms
2016-12-10 12:01:02.923 +01:00 [Information] Request finished in 7154.8818ms 200 application/json;charset=UTF-8
2016-12-10 12:01:31.796 +01:00 [Information] Request starting HTTP/1.1 POST http://localhost:50417/connect/token application/x-www-form-urlencoded 919
2016-12-10 12:01:31.796 +01:00 [Information] The token request validation process was skipped because the client_id parameter was missing or empty.
2016-12-10 12:01:31.875 +01:00 [Information] Executed DbCommand (25ms) [Parameters=[@__key_0='?' (Size = 450)], CommandType='Text', CommandTimeout='30']
SELECT TOP(2) [token].[Id], [token].[ApplicationId], [token].[AuthorizationId], [token].[Type]
FROM [OpenIddictTokens] AS [token]
WHERE [token].[Id] = @__key_0
2016-12-10 12:01:31.937 +01:00 [Information] Executed DbCommand (2ms) [Parameters=[@p0='?' (Size = 450)], CommandType='Text', CommandTimeout='30']
SET NOCOUNT ON;
DELETE FROM [OpenIddictTokens]
WHERE [Id] = @p0;
SELECT @@ROWCOUNT;
2016-12-10 12:01:31.953 +01:00 [Information] No explicit audience was associated with the access token.
2016-12-10 12:01:31.968 +01:00 [Information] Executed DbCommand (0ms) [Parameters=[@p0='?' (Size = 450), @p1='?' (Size = 450), @p2='?' (Size = 450), @p3='?' (Size = 4000)], CommandType='Text', CommandTimeout='30']
SET NOCOUNT ON;
INSERT INTO [OpenIddictTokens] ([Id], [ApplicationId], [AuthorizationId], [Type])
VALUES (@p0, @p1, @p2, @p3);
2016-12-10 12:01:31.968 +01:00 [Information] Request finished in 182.6336ms 200 application/json;charset=UTF-8
