{
  "version": "1.0.0-*",

  "dependencies": {
    "AutoMapper": "5.2.0",
    "FarmMachine.Dto": "1.0.0-*",
    "FarmMachine.Models": "1.0.0-*",
    "FarmMachine.Queries": "1.0.0-*",
    "FarmMachine.Storage": "1.0.0-*",
    "NETStandard.Library": "1.6.1"
  },

  "frameworks": {
    "netstandard1.6": {
      "imports": "dnxcore50"
    }
  }
}
