{
  "version": "1.0.0-*",

  "dependencies": {
    "Autofac": "4.2.1",
    "FarmMachine.CommandHandlers": "1.0.0-*",
    "FarmMachine.Commands": "1.0.0-*",
    "FarmMachine.Dto": "1.0.0-*",
    "FarmMachine.Queries": "1.0.0-*",
    "FarmMachine.QueryHandlers": "1.0.0-*",
    "NETStandard.Library": "1.6.1"
  },

  "frameworks": {
    "netstandard1.6": {
      "imports": "dnxcore50"
    }
  }
}
